{
  "AppSettings": {
    "SiteTitle": "BareBonesSite"
  },
  "Data": {
    "DefaultConnection": {
      "ConnectionString": "Server=(localdb)\\mssqllocaldb;Database=aspnet5-BareBonesSite-1387e472-7140-45f0-bf38-373cc8653872;Trusted_Connection=True;MultipleActiveResultSets=true"
    }
  }
}
